SlNo,Fish_ID,Parent,Clutch_no,Date_setup,Date_birth,Age in days at t0,Weight0g,Treatment,Stream,Pred,Age1,Weight1g,Age2,Weight2g,Age3,Weight3g,Weight4g,FinalIntialWeight,Standard_length_mm,Date exc,Aget,Wetmassg,Drymassg,Gut_Lengthmm,Wetmass_wo_io_g,NH4_rate(ug/hr),PO3_rate,Percent_C ,Percent_N,P_weight,P_reading,p conc,abs1,abs2,avabs
1,AHPF1,AH2,1,7/3/2023,5/20/2023,44,0.038,Invert like,Aripo,HP,65,0.075,86,0.096,107,0.103,0.121,0.089,16.95,9/25/2023,128,0.127,0.019304,24.87,0.087,8.465458,0.8991963,38.73,10.49,0.00135,0.0901,0,0.0003,0.0007,0.0005
2,AHYF1,AH2,1,7/3/2023,5/20/2023,44,0.034,Algae like,Aripo,HP,65,0.06,86,0.074,107,N/A,N/A,0.053,14.98,9/25/2023,128,0.087,0.020869,,,,,43.65,10.04,0.001624,0.0764,0.025,0.0139,0.0159,0.0149
3,AHYF2,AH12,1,7/3/2023,5/19/2023,45,0.032,Algae like,Aripo,HP,66,0.062,87,0.079,108,0.099,0.128,0.097,18.5,9/25/2023,129,0.129,0.023988,29.41,0.0978,1.886628,1.5217169,45.63,11.3,0.005533,0.2243,0.05,0.0351,0.0306,0.03285
4,ALPF1,AL2,1,7/3/2023,5/14/2023,50,0.042,Invert like,Aripo,LP,71,0.082,92,0.087,113,0.109,0.132,0.11,17.05,9/25/2023,134,0.152,0.012899,34.08,0.0787,,,46.79,11.75,0.00516,0.2022,0.1,0.0628,0.0625,0.06265
5,ALYF1,AL2,1,7/3/2023,5/14/2023,50,0.041,Algae like,Aripo,LP,71,0.067,92,0.081,113,0.095,0.116,0.07,17.48,9/25/2023,134,0.111,0.021055,25.4,0.0813,2.678275,-6.0522831,42.04,10.36,0.005576,0.2845,0.2,0.1033,0.1095,0.1064
6,ALPF2,AL2,1,7/12/2023,5/14/2023,59,0.074,Invert like,Aripo,LP,80,0.094,101,0.111,122,0.126,,0.0624,18.46,10/3/2023,142,0.1364,0.027006,27.4,0.106,6.78867,-1.3487945,42.63,10.9,0.005668,0.2412,0.4,0.2328,0.2458,0.2393
7,ALPF3 ,AL2,1,7/12/2023,5/14/2023,59,0.081,Invert like,Aripo,LP,80,0.112,101,0.128,122,0.144,,0.0588,19.49,10/3/2023,142,0.1398,0.028971,29.93,0.1298,3.603929,-2.8013425,44.1,11.6,0.006396,0.2802,0.7,0.3497,0.415,0.38235
8,AHYF3,AH12,1,7/12/2023,5/19/2023,54,0.049,Algae like,Aripo,HP,75,0.073,96,0.086,117,0.121,,0.0834,17.86,10/3/2023,137,0.1324,0.022669,32.45,0.0961,4.355201,1.4525479,44.14,10.71,0.005824,0.258,1,0.5788,0.5732,0.576
9,AHYF4,AH8,1,7/12/2023,6/1/2023,41,0.059,Algae like,Aripo,HP,62,0.079,83,0.099,104,0.126,,0.0744,18.95,10/3/2023,124,0.1334,0.02265,30.24,0.0925,8.61241,0.1729224,42.13,11.16,0.005752,0.2974,,,,
10,AHPF2,AH8,1,7/12/2023,6/1/2023,41,0.063,Invert like,Aripo,HP,62,0.088,83,0.086,104,0.106,,0.0632,17.83,10/3/2023,124,0.1262,0.023901,37.55,0.0956,4.998682,1.4179635,44.21,10.75,0.005597,0.2505,,,,
11,ALYF2,AL7,1,7/12/2023,5/28/2023,45,0.076,Algae like,Aripo,LP,66,0.089,87,0.107,108,0.127,,0.0721,18.65,10/3/2023,128,0.1481,0.027062,27.29,0.1097,2.017547,0.2075068,44.18,10.8,0.005406,0.287,,,,
12,ALPF4,AL7,1,7/12/2023,5/28/2023,45,0.088,Invert like,Aripo,LP,66,0.116,87,0.139,108,0.147,,0.0784,19.28,10/3/2023,128,0.1664,0.031966,35.2,0.1265,4.047071,0.9337808,42.19,10.53,0.005461,0.2839,,,,
13,ALYF3,AL3,1,7/12/2023,5/28/2023,45,0.057,Algae like,Aripo,LP,66,0.074,87,0.081,108,0.086,,0.044,17.25,10/3/2023,128,0.101,0.018686,19.07,0.0784,3.98392,1.5217169,42.72,10.53,0.004114,0.2126,,,,
14,AHPF3,AH8,1,7/12/2023,6/1/2023,41,0.059,Invert like,Aripo,HP,62,0.083,83,0.096,104,0.111,,0.0626,18.8,10/3/2023,124,0.1216,0.022375,25.78,0.0937,15.197475,1.5908858,45.47,10.93,0.005268,0.2283,,,,
15,AHPF4,AH9,1,8/1/2023,6/4/2023,58,0.059,Invert like,Aripo,HP,79,0.068,100,0.07,121,0.111,,0.0603,17.81,10/24/2023,142,0.1193,0.020931,27.79,0.0791,5.550453,4.2760202,42.55,10.94,0.004158,0.2527,,,,
16,AHPF5,AH9,1,8/1/2023,6/4/2023,58,0.058,Invert like,Aripo,HP,79,0.066,100,0.083,121,0.102,,0.086,18.74,10/24/2023,142,0.144,0.027113,31.35,0.1026,6.495295,5.93891695,44.98,10.7,0.005284,0.2228,,,,
17,AHYF5,AH9,1,8/1/2023,6/4/2023,58,0.068,Algae like,Aripo,HP,79,0.09,100,0.098,121,0.101,,0.0523,17.65,10/24/2023,142,0.1203,0.022966,28.49,0.085,1.327046,1.42534007,43.72,10.7,0.005245,0.2202,,,,
18,ALYF4,AL4,1,8/1/2023,6/6/2023,56,0.076,Algae like,Aripo,LP,77,0.098,98,0.112,119,0.121,,0.0607,17.95,10/24/2023,140,0.1367,0.028652,32.24,0.1035,1.391229,-3.05430014,44.74,10.37,0.005779,0.3183,,,,
19,ALYF5,AL4,1,8/1/2023,6/6/2023,56,0.091,Algae like,Aripo,LP,77,0.124,98,0.144,119,0.153,,0.0871,20.13,10/24/2023,140,0.1781,0.039138,28.22,0.1422,5.731249,-0.78054337,46.16,9.85,0.005403,0.2441,,,,
20,ALPF5,AL4,1,8/1/2023,6/6/2023,56,0.068,Invert like,Aripo,LP,77,0.096,98,0.115,119,0.141,,0.1013,20.84,10/24/2023,140,0.1693,0.032334,33.04,0.1224,4.537992,0.50905002,42.98,10.45,0.00516,0.2403,,,,
21,ALPF6,AL2,2,8/1/2023,6/8/2023,54,0.045,Invert like,Aripo,LP,75,0.071,96,0.098,117,0.135,,0.1063,19.6,10/24/2023,138,0.1513,0.029213,29.51,0.1129,8.239981,0.06787334,44.79,10.85,0.005333,0.2253,,,,
22,ALYF6,AL2,2,8/1/2023,6/8/2023,54,0.055,Algae like,Aripo,LP,75,0.08,96,0.094,117,0.122,,0.0854,20.25,10/24/2023,138,0.1404,0.027424,31.03,0.1063,8.84113,0.37330335,45.41,10.42,0.005226,0.2343,,,,
23,ALPF7,AL2,2,8/1/2023,6/8/2023,54,0.047,Invert like,Aripo,LP,75,0.077,96,0.092,117,0.127,,0.1094,19.98,10/24/2023,138,0.1564,0.03103,29.24,0.1175,7.846749,1.42534007,44.03,10.63,0.005394,0.2633,,,,
24,AHPF6,AH7,1,8/1/2023,6/5/2023,57,0.058,Invert like,Aripo,HP,78,0.087,99,0.096,120,0.107,,0.0726,17.99,10/24/2023,141,0.1306,0.024166,22.36,0.0921,6.843148,0.20362001,42.66,10.92,0.005393,0.2693,,,,
25,AHYF6,AH7,1,8/1/2023,6/5/2023,57,0.065,Algae like,Aripo,HP,78,0.086,99,0.087,120,0.109,,0.071,17.59,10/24/2023,141,0.136,0.026075,20.48,0.1023,5.686954,1.28959339,45.1,10.27,0.005793,0.2591,,,,
26,AHPF7,AH7,1,8/1/2023,6/5/2023,57,0.05,Invert like,Aripo,HP,78,0.083,99,0.097,120,0.124,,0.1186,18.89,10/24/2023,141,0.1686,0.030376,32.5,0.1206,6.007145,2.85068014,43.7,10.49,0.005639,0.2503,,,,
27,ALYF7,AL2,2,8/1/2023,6/8/2023,54,0.051,Algae like,Aripo,LP,75,0.077,96,0.081,117,0.101,,0.0813,18.34,10/24/2023,138,0.1323,0.025128,26.48,0.1014,3.769607,0.98416338,43.09,10.58,0.005648,0.2728,,,,
28,ALPF8,AL2,2,8/1/2023,6/8/2023,54,0.049,Invert like,Aripo,LP,75,0.076,96,0.082,117,0.118,,0.0998,19.82,10/24/2023,138,0.1488,0.027371,30.84,0.1163,5.668151,3.83484352,43.23,10.89,0.005575,0.2664,,,,
29,ALYF8,AL2,2,8/1/2023,6/8/2023,54,0.053,Algae like,Aripo,LP,75,0.071,96,0.08,117,0.089,,0.0573,17.23,10/24/2023,138,0.1103,0.020277,28.61,0.0842,3.453213,-1.69683341,43.6,10.53,0.005389,0.2587,,,,
30,AHYF7,AH11,2,8/1/2023,6/11/2023,51,0.061,Algae like,Aripo,HP,72,0.083,93,0.102,114,0.131,,0.1105,18.55,10/24/2023,135,0.1715,0.033546,45.67,0.1274,10.938369,-0.57692336,47.97,10.05,0.00568,0.215,,,,
31,AHPF8,AH11,2,8/1/2023,6/11/2023,51,0.055,Invert like,Aripo,HP,72,0.09,93,0.097,114,0.125,,0.102,18.37,10/24/2023,135,0.157,0.032855,30.92,0.1215,6.594733,0.54298669,46.5,10.1,0.005956,0.2647,,,,
32,AHYF8,AH11,2,8/1/2023,6/11/2023,51,0.052,Algae like,Aripo,HP,72,0.074,93,0.081,114,0.11,,0.0856,17.87,10/24/2023,135,0.1376,0.026687,35.13,0.1085,5.610115,0.84841671,47.54,10.6,0.005287,0.2137,,,,
33,ALPF9,AL6,1,8/1/2023,6/6/2023,56,0.134,Invert like,Aripo,LP,77,0.157,98,0.151,119,0.171,,0.065,20.64,10/24/2023,140,0.199,0.040509,30.61,0.1567,15.851966,2.23982011,42.85,11.14,0.00568,0.2909,,,,
34,AHYF9,AH11,2,8/1/2023,6/11/2023,51,0.049,Algae like,Aripo,HP,72,0.075,93,0.075,114,0.091,,0.0607,16.56,10/24/2023,135,0.1097,0.022003,30.97,0.085,4.917665,2.54525012,45.13,10.31,0.005489,0.2554,,,,
35,ALYF9,AL10,3,9/13/2023,7/13/2023,62,0.053,Algae like,Aripo,LP,83,0.078,104,0.115,125,0.151,,0.1051,18.09,12/5/2023,145,0.1581,0.030028,32.66,0.1055,3.6075601,0.86236148,43.84,10.52,0.005425,0.2666,,,,
36,ALPF10,AL4,3,9/22/2023,7/24/2023,60,0.054,Invert like,Aripo,LP,81,0.083,102,0.111,123,0.163,,0.1247,21.37,12/13/2023,142,0.1787,0.04028,44.43,0.1487,8.14836892,-2.76213024,44.45,10.57,0.005144,0.2301,,,,
37,AHYF10,AH2,2,9/13/2023,7/12/2023,63,0.069,Algae like,Aripo,HP,84,0.078,105,0.105,126,0.105,,0.0613,18.29,12/5/2023,146,0.1303,0.026009,22.92,0.098,4.2611915,0.32338556,41.73,10.78,0.005083,0.2669,,,,
38,AHPF9,AH2,2,9/13/2023,7/12/2023,63,0.065,Invert like,Aripo,HP,84,0.077,105,0.089,126,0.105,,0.0654,18.09,12/5/2023,146,0.1304,0.022929,31.61,0.0873,5.0071331,0.17965864,40.55,10.44,0.005212,0.2809,,,,
39,ALYF10,AL7,3,9/13/2023,7/12/2023,63,0.08,Algae like,Aripo,LP,84,0.092,105,0.125,126,0.139,,0.1013,19.16,12/5/2023,146,0.1813,0.031852,38.42,0.1238,4.0560575,0.89829321,44.18,10.54,0.005387,0.2506,,,,
40,ALYF11,AL7,3,9/13/2023,7/12/2023,63,0.074,Algae like,Aripo,LP,84,0.089,105,0.128,126,0.137,,0.1082,19.9,12/5/2023,146,0.1822,0.030869,43.53,0.1157,4.5129467,0.39524901,43.6,9.48,0.005734,0.2632,,,,
41,ALPF11,AL7,3,9/13/2023,7/12/2023,63,0.069,Invert like,Aripo,LP,84,0.103,105,0.137,126,0.171,,0.1607,22.12,12/5/2023,146,0.2297,0.045025,45.79,0.1644,11.2853506,2.98233346,46.85,10.45,0.005448,0.223,,,,
42,ALPF12,AL7,3,9/13/2023,7/12/2023,63,0.075,Invert like,Aripo,LP,84,0.099,105,0.126,126,0.165,,0.1366,20.91,12/5/2023,146,0.2116,0.037212,45.64,0.1466,19.0244949,0.64677111,45.47,10.55,0.005367,0.2363,,,,
43,AHYF11,AH5,3,9/13/2023,7/12/2023,63,0.058,Algae like,Aripo,HP,84,0.081,105,0.105,126,0.133,,0.09,18.65,12/5/2023,146,0.148,0.02751,16.58,0.101,3.5366957,0.46711247,43.46,10.42,0.005277,0.239,,,,
44,AHYF12,AH5,3,9/13/2023,7/12/2023,63,0.075,Algae like,Aripo,HP,84,0.087,105,0.112,126,0.131,,0.0838,17.55,12/5/2023,146,0.1588,0.026799,40.75,0.0992,3.0956577,0.46711247,45.78,10.37,0.005135,0.2242,,,,
45,AHPF10,AH5,3,9/13/2023,7/12/2023,63,0.058,Invert like,Aripo,HP,84,0.084,105,0.128,126,0.164,,0.1682,21,12/5/2023,146,0.2262,0.040555,45.04,0.154,20.5070538,-0.21559037,44.1,10.48,0.005742,0.2531,,,,
46,AHPF11,AH5,3,9/13/2023,7/12/2023,63,0.054,Invert like,Aripo,HP,84,0.081,105,0.108,126,0.125,,0.1115,19.87,12/5/2023,146,0.1655,0.028409,25.25,0.1076,13.1035833,2.04810852,44.28,10.52,0.005781,0.2521,,,,
47,AHYF13,AH6,3,9/13/2023,7/16/2023,59,0.071,Algae like,Aripo,HP,80,0.093,101,0.116,122,0.135,,0.1008,19.46,12/5/2023,142,0.1718,0.032407,29.12,0.1223,4.6341623,1.83251815,45.04,10.56,0.00527,0.232,,,,
48,AHYF14,AH6,3,9/13/2023,7/16/2023,59,0.055,Algae like,Aripo,HP,80,0.08,101,0.113,122,0.143,,0.1325,20.2,12/5/2023,142,0.1875,0.037107,38.34,0.1368,2.7133626,0.28745383,46.88,10.51,0.00569,0.2266,,,,
49,AHPF12,AH6,3,9/13/2023,7/16/2023,59,0.054,Invert like,Aripo,HP,80,0.086,101,0.138,122,0.171,,0.177,21.4,12/5/2023,142,0.231,0.038928,20.48,0.1494,20.1434073,1.97624507,46.15,10.64,0.005548,0.2291,,,,
50,AHPF13,AH6,3,9/13/2023,7/16/2023,59,0.066,Invert like,Aripo,HP,80,0.088,101,0.129,122,0.166,,0.1466,21.35,12/5/2023,142,0.2126,0.041204,42.95,0.1499,7.3579681,-1.65285951,47.45,10.56,0.005594,0.2258,,,,
51,ALYF12,AL3,3,9/13/2023,7/16/2023,59,0.048,Algae like,Aripo,LP,80,0.06,101,0.085,122,0.103,,0.0745,18.7,12/5/2023,142,0.1225,0.025513,21.03,0.0962,1.3995729,3.77283149,43.54,9.77,0.005446,0.245,,,,
52,ALYF13,AL3,3,9/13/2023,7/16/2023,59,0.055,Algae like,Aripo,LP,80,0.071,101,0.099,122,0.124,,0.0971,20.29,12/5/2023,142,0.1521,0.0298,24.33,0.1142,1.2802223,0.07186346,44.41,10.51,0.005449,0.2409,,,,
53,ALPF13,AL3,3,9/13/2023,7/16/2023,59,0.061,Invert like,Aripo,LP,80,0.079,101,0.118,122,0.165,,0.148,21.82,12/5/2023,142,0.209,0.037544,42.52,0.1478,13.8215521,-0.17965864,44.37,10.83,0.005298,0.2353,,,,
54,ALPF14,AL9,3,9/22/2023,7/26/2023,58,0.076,Invert like,Aripo,LP,79,0.097,100,0.13,121,0.174,,0.137,21.9,12/13/2023,140,0.213,0.040112,45.26,0.1515,9.97482304,-2.76213024,44.75,10.8,0.005305,0.2476,,,,
55,ALYF14,AL9,3,9/22/2023,7/26/2023,58,0.069,Algae like,Aripo,LP,79,0.097,100,0.123,121,0.144,,0.11,21.19,12/13/2023,140,0.179,0.035636,36.38,0.1325,4.93336622,0.35411926,45.13,10.64,0.006022,0.2522,,,,
56,AHPF14,AH4,4,9/22/2023,7/31/2023,53,0.067,Invert like,Aripo,HP,74,0.097,95,0.14,116,0.18,,0.1426,21.17,12/13/2023,135,0.2096,0.039805,52.67,0.1471,11.3144075,0.03541193,43.71,10.51,0.00596,0.253,,,,
57,AHYF17,AH4,4,9/22/2023,7/31/2023,53,0.057,Algae like,Aripo,HP,74,0.077,95,0.11,116,0.146,,0.126,20.42,12/13/2023,135,0.183,0.034354,39.82,0.1375,3.9975048,2.47883483,42.54,10.62,0.005474,0.2342,,,,
58,AHPF15,AH4,4,9/22/2023,7/31/2023,53,0.052,Invert like,Aripo,HP,74,0.088,95,0.127,116,0.165,,0.1487,20.34,12/13/2023,135,0.2007,0.038374,52.72,0.1492,21.31971764,1.87683209,45.2,10.52,0.005621,0.223,,,,
59,AHYF15,AH4,4,9/22/2023,7/31/2023,53,0.057,Algae like,Aripo,HP,74,0.076,95,0.098,116,0.129,,0.1094,19.7,12/13/2023,135,0.1664,0.031639,44.28,0.124,10.8340048,0.28329541,43.51,10.21,0.005478,0.2564,,,,
60,ALYF15,AL2,4,9/22/2023,7/31/2023,53,0.053,Algae like,Aripo,LP,74,0.074,95,0.098,116,0.124,,0.1209,19.79,12/13/2023,135,0.1739,0.033051,37.99,0.1296,13.06972507,0.03541193,45.07,10.48,0.005329,0.2341,,,,
61,ALPF15,AL2,4,9/22/2023,7/31/2023,53,0.055,Invert like,Aripo,LP,74,0.075,95,0.098,116,0.143,,0.1278,20.49,12/13/2023,135,0.1828,0.037977,41.4,0.1355,22.41910075,2.54965868,44.24,9.87,0.005756,0.2631,,,,
62,ALPF16,AL2,4,9/22/2023,7/31/2023,53,0.062,Invert like,Aripo,LP,74,0.1,95,0.129,116,0.172,,0.1548,21.63,12/13/2023,135,0.2168,0.042913,43.8,0.1588,7.66981392,1.80600823,43.75,10.36,0.005174,0.2485,,,,
63,AHPF16,AH11,4,9/22/2023,7/31/2023,53,0.079,Invert like,Aripo,HP,74,0.096,95,0.141,116,0.186,,0.1579,21.26,12/13/2023,135,0.2369,0.045224,50.57,0.1745,10.61228047,3.71825225,45.3,11.06,0.005448,0.2307,,,,
64,AHYF16,AH11,4,9/22/2023,7/31/2023,53,0.063,Algae like,Aripo,HP,74,0.073,95,0.091,116,0.121,,0.0815,28.18,12/13/2023,135,0.1445,0.028919,,0.1042,3.43765088,2.86836602,45.39,9.92,0.005121,0.2401,,,,
65,ALYF16,AL4,3,9/22/2023,7/24/2023,60,0.088,Algae like,Aripo,LP,81,0.1,102,0.126,123,0.144,,0.0866,20.57,12/13/2023,142,0.1746,0.036524,36.7,0.1357,7.09794993,1.23941742,45.45,10.43,0.005544,0.2513,,,,
66,AHPF17,AH4,4,9/27/2023,7/31/2023,58,0.058,Invert like,Aripo,HP,79,0.093,100,0.13,121,0.187,,0.1566,21.43,12/18/2023,140,0.2146,0.040063,45.22,0.1543,13.1664728,1.5670516,44.35,10.69,0.005147,0.2293,,,,
67,AHYF18,AH12,4,9/27/2023,8/2/2023,56,0.046,Algae like,Aripo,HP,77,0.065,98,0.097,119,0.134,,0.1133,18.92,12/18/2023,138,0.1593,0.028652,41.27,0.1124,16.4943029,0.7089043,44.05,10.41,0.005509,0.2718,,,,
68,AHPF18,AH12,4,9/27/2023,8/2/2023,56,0.043,Invert like,Aripo,HP,77,0.077,98,0.1,119,0.159,,0.1565,20.27,12/18/2023,138,0.1995,0.037715,41.93,0.1476,13.9365492,2.4625096,44.73,10.35,0.00516,0.2382,,,,
69,AHYF19,AH12,4,9/27/2023,8/2/2023,56,0.042,Algae like,Aripo,HP,77,0.068,98,0.104,119,0.146,,0.1272,19.62,12/18/2023,138,0.1692,0.032351,26.28,0.1261,3.8769679,0,44.29,10.62,0.005498,0.2765,,,,
70,AHPF19,AH12,4,9/27/2023,8/2/2023,56,0.049,Invert like,Aripo,HP,77,0.077,98,0.119,119,0.167,,0.1799,20.96,12/18/2023,138,0.2289,0.041328,43.29,0.1626,17.8309355,0.9327688,44.41,10.73,0.005522,0.2356,,,,
71,ALYF17,AL10,4,9/27/2023,8/8/2023,50,0.062,Algae like,Aripo,LP,71,0.079,92,0.11,113,0.143,,0.1243,19.75,12/18/2023,132,0.1863,0.033306,36.54,0.1346,6.7033317,3.2460354,42.01,10.19,0.00534,0.2389,,,,
72,ALPF17,AL10,4,9/27/2023,8/8/2023,50,0.072,Invert like,Aripo,LP,71,0.093,92,0.129,113,0.189,,0.158,21.14,12/18/2023,132,0.23,0.040817,50.74,0.166,15.8782418,3.2460354,43.3,10.55,0.005363,0.2776,,,,
73,ALYF18,AL10,4,9/27/2023,8/8/2023,50,0.056,Algae like,Aripo,LP,71,0.077,92,0.105,113,0.134,,0.1116,19.31,12/18/2023,132,0.1676,0.033011,32.87,0.1265,2.5247505,1.0820118,45.59,10.59,0.005159,0.2116,,,,
74,ALPF18,AL10,4,9/27/2023,8/8/2023,50,0.059,Invert like,Aripo,LP,71,0.081,92,0.12,113,0.179,,0.1624,20.67,12/18/2023,132,0.2214,0.039982,49.02,0.1589,13.5918484,-2.3878881,43.27,10.68,0.00587,0.276,,,,
75,AHYF20,AH5,4,9/27/2023,8/8/2023,50,0.04,Algae like,Aripo,HP,71,0.067,92,0.088,113,0.117,,0.0956,18.13,12/18/2023,132,0.1356,0.024644,34.12,0.0971,3.2132354,1.6789838,43.54,10.52,0.005218,0.2311,,,,
76,AHPF20,AH5,4,9/27/2023,8/8/2023,50,0.038,Invert like,Aripo,HP,71,0.068,92,0.102,113,0.154,,0.1536,20.02,12/18/2023,132,0.1916,0.034197,35.84,0.1305,28.0216132,2.8356171,45.57,10.74,0.005877,0.2188,,,,
77,AHYF21,AH5,4,9/27/2023,8/8/2023,50,0.047,Algae like,Aripo,HP,71,0.074,92,0.089,113,0.117,,0.0946,18.4,12/18/2023,132,0.1416,0.027518,34.59,0.105,1.98203,2.3132666,45.71,10.32,0.005644,0.2367,,,,
78,AHPF21,AH5,4,9/27/2023,8/8/2023,50,0.037,Invert like,Aripo,HP,71,0.07,92,0.094,113,0.141,,0.1494,19.63,12/18/2023,132,0.1864,0.03259,30.97,0.1324,16.0084214,1.0820118,45.13,11.03,0.005287,0.2203,,,,
79,ALYF19,AL7,4,9/27/2023,8/8/2023,50,0.043,Algae like,Aripo,LP,71,0.072,92,0.093,113,0.123,,0.1051,18.94,12/18/2023,132,0.1481,0.030099,36.36,0.118,2.5669213,0.7089043,45.74,10.64,0.005441,0.2314,,,,
80,ALPF19,AL7,4,9/27/2023,8/8/2023,50,0.053,Invert like,Aripo,LP,71,,92,,113,,,-0.053,,12/18/2023,132,,,,,,,,,,,,,,
81,ALYF20,AL7,4,9/27/2023,8/8/2023,50,0.034,Algae like,Aripo,LP,71,0.06,92,0.081,113,0.104,,0.0847,16.8,12/18/2023,132,0.1187,0.02296,36.13,0.087,2.4917472,0.8581473,46.81,10.02,0.005756,0.255,,,,
82,ALPF20,AL7,4,9/27/2023,8/8/2023,50,0.034,Invert like,Aripo,LP,71,0.064,92,0.099,113,0.148,,0.1458,20.11,12/18/2023,132,0.1798,0.034155,48.05,0.1357,9.8294751,2.5744418,45.12,10.64,0.005417,0.2341,,,,
83,ALYF21,AL4,4,9/27/2023,8/8/2023,50,0.066,Algae like,Aripo,LP,71,0.089,92,0.106,113,0.132,,0.0918,19.4,12/18/2023,132,0.1578,0.029971,33.96,0.1197,4.6296259,1.044701,42.73,10.85,0.005762,0.2738,,,,
84,ALPF21,AL4,4,9/27/2023,8/8/2023,50,0.062,Invert like,Aripo,LP,71,0.079,92,0.101,113,0.132,,0.0905,19.65,12/18/2023,132,0.1525,0.031231,27.24,0.1255,7.7025975,1.6043623,42.8,10.93,0.00518,0.2322,,,,
85,AHPF22,AH5,4,9/29/2023,8/8/2023,52,0.044,Invert like,Aripo,HP,73,0.076,94,0.103,115,0.165,,0.1628,20.76,12/21/2023,135,0.2068,0.036545,34.79,0.1494,20.9265848,0.85952543,46.24,10.99,0.0058,0.2128,,,,
86,AHYF22,AH6,4,9/29/2023,8/9/2023,51,0.047,Algae like,Aripo,HP,72,0.077,93,0.099,114,0.121,,0.0979,18.24,12/21/2023,134,0.1449,0.026612,29.74,0.1063,4.1079082,-1.60693886,44.51,10.72,0.005151,0.2209,,,,
87,AHPF23,AH6,4,9/29/2023,8/9/2023,51,0.04,Invert like,Aripo,HP,72,0.075,93,0.096,114,0.14,,0.1472,19.9,12/21/2023,134,0.1872,0.032717,33.61,0.1362,4.89536,2.35435228,44.43,10.49,0.005672,0.2519,,,,
88,AHYF23,AH6,4,9/29/2023,8/9/2023,51,0.038,Algae like,Aripo,HP,72,0.063,93,0.088,114,0.128,,0.125,18.59,12/21/2023,134,0.163,0.030872,32.16,0.1217,3.2330759,-0.93426678,45.34,10.58,0.005182,0.206,,,,
89,ALPF22,AL7,4,9/29/2023,8/8/2023,52,0.038,Invert like,Aripo,LP,73,0.073,94,0.091,115,0.147,,0.1555,19.48,12/21/2023,135,0.1935,0.030974,51.56,0.1472,,,45.78,10.74,0.005354,0.233,,,,
90,ALYF22,AL7,4,9/29/2023,8/8/2023,52,0.05,Algae like,Aripo,LP,73,0.078,94,0.093,115,0.131,,0.0863,18.03,12/21/2023,135,0.1363,0.024477,33.78,0.1004,3.0017747,-0.48581872,43.02,10.46,0.005784,0.2961,,,,
91,ALPF23,AL7,4,9/29/2023,8/8/2023,52,0.044,Invert like,Aripo,LP,73,0.079,94,0.1,115,0.155,,0.1547,21.03,12/21/2023,135,0.1987,0.038311,39.27,0.1502,8.6455225,2.31698161,45.17,11.05,0.005689,0.2336,,,,
92,AHPF24,AH13,4,9/29/2023,8/10/2023,50,0.029,Invert like,Aripo,HP,71,0.055,92,0.08,113,0.136,,0.1477,19.95,12/21/2023,133,0.1767,0.035566,42.03,0.1364,9.7418898,1.86853355,46.3,10.91,0.005325,0.2135,,,,
93,AHYF24,AH13,4,9/29/2023,8/10/2023,50,0.042,Algae like,Aripo,HP,71,0.07,92,0.088,113,0.122,,0.1136,19.05,12/21/2023,133,0.1556,0.029704,39.94,0.1225,9.7249278,1.56956819,45.43,11.01,0.005188,0.2201,,,,
94,AHPF25,AH13,4,9/29/2023,8/10/2023,50,0.047,Invert like,Aripo,HP,71,0.076,92,0.113,113,0.163,,0.1428,20.41,12/21/2023,133,0.1898,0.036282,44.87,0.1411,6.7951134,0,46.13,10.97,0.005673,0.2342,,,,
95,AHYF25,AH13,4,9/29/2023,8/10/2023,50,0.043,Algae like,Aripo,HP,71,0.067,92,0.085,113,0.126,,0.1053,18.92,12/21/2023,133,0.1483,0.030355,36.76,0.1152,2.1721747,-2.87754167,46.8,10.42,0.005868,0.2373,,,,
96,AHYF26,AH6,4,9/29/2023,8/9/2023,51,0.046,Algae like,Aripo,HP,72,0.055,93,0.078,114,0.115,,0.0968,18.12,12/21/2023,134,0.1428,0.028515,29.77,0.109,3.671006,1.9432749,45.2,10.27,0.005838,0.2391,,,,
97,ALYF23,AL13,4,9/29/2023,8/8/2023,52,0.096,Algae like,Aripo,LP,73,0.115,94,0.123,115,0.162,,0.085,20.41,12/21/2023,135,0.181,0.035308,25.25,0.1356,3.9557634,1.4200855,44.78,10.94,0.005486,0.2658,,,,
98,ALPF24,AL3,4,9/29/2023,8/13/2023,47,0.058,Invert like,Aripo,LP,68,0.083,89,0.104,110,0.158,,0.1379,20.39,12/21/2023,130,0.1959,0.03848,32.59,0.1454,6.8043654,0.11211201,43.98,10.9,0.005411,0.3058,,,,
99,ALYF24,AL4,4,9/29/2023,8/17/2023,43,0.063,Algae like,Aripo,LP,64,0.087,85,0.104,106,0.139,,0.0958,19.58,12/21/2023,126,0.1588,0.030264,34.73,0.122,3.3656885,3.62495509,43.99,10.8,0.00567,0.2612,,,,
100,ALPF25,AL4,4,9/29/2023,8/17/2023,43,0.048,Invert like,Aripo,LP,64,0.071,85,0.101,106,0.164,,0.1524,21.4,12/21/2023,126,0.2004,0.039639,44.7,0.1561,5.9942974,2.50383496,44.39,11.09,0.005494,0.2492,,,,
101,ALYF25,AL6,3,9/29/2023,8/18/2023,42,0.035,Algae like,Aripo,LP,63,0.053,84,0.068,105,0.097,,0.0779,17.15,12/21/2023,125,0.1129,0.023263,28.94,0.0879,3.1364434,0.29896537,44.5,10.28,0.005165,0.2365,,,,
102,ALPF26,AL6,3,9/29/2023,8/18/2023,42,0.039,Invert like,Aripo,LP,63,0.058,84,0.079,105,0.143,,0.132,19.86,12/21/2023,125,0.171,0.034214,35.13,0.1356,6.4435356,0.97163745,44.02,10.99,0.00587,0.2662,,,,