SlNo,Fish_ID,Parent,Clutch_no,Date_setup,Date_birth,Weight0g,Treatment,Stream,Pred,Weight1g,Weight2g,Weight3g,Weight4g,Standard_length_mm,Wetmassg,Drymassg,Gut_Lengthmm,Wetmass_wo_io_g,NH4_rate(ug/hr),PO3_rate
1,AHPF1,AH2,1,7/3/2023,5/20/2023,0.038,Invert like,Aripo,HP,0.075,0.096,0.103,0.121,16.95,0.127,0.019304,24.87,0.087,8.465458,0.8991963
2,AHYF1,AH2,1,7/3/2023,5/20/2023,0.034,Algae like,Aripo,HP,0.06,0.074,N/A,N/A,14.98,0.087,0.020869,,,,
3,AHYF2,AH12,1,7/3/2023,5/19/2023,0.032,Algae like,Aripo,HP,0.062,0.079,0.099,0.128,18.5,0.129,0.023988,29.41,0.0978,1.886628,1.5217169
4,ALPF1,AL2,1,7/3/2023,5/14/2023,0.042,Invert like,Aripo,LP,0.082,0.087,0.109,0.132,17.05,0.152,0.012899,34.08,0.0787,,
5,ALYF1,AL2,1,7/3/2023,5/14/2023,0.041,Algae like,Aripo,LP,0.067,0.081,0.095,0.116,17.48,0.111,0.021055,25.4,0.0813,2.678275,-6.0522831
6,ALPF2,AL2,1,7/12/2023,5/14/2023,0.074,Invert like,Aripo,LP,0.094,0.111,0.126,,18.46,0.1364,0.027006,27.4,0.106,6.78867,-1.3487945
7,ALPF3 ,AL2,1,7/12/2023,5/14/2023,0.081,Invert like,Aripo,LP,0.112,0.128,0.144,,19.49,0.1398,0.028971,29.93,0.1298,3.603929,-2.8013425
8,AHYF3,AH12,1,7/12/2023,5/19/2023,0.049,Algae like,Aripo,HP,0.073,0.086,0.121,,17.86,0.1324,0.022669,32.45,0.0961,4.355201,1.4525479
9,AHYF4,AH8,1,7/12/2023,6/1/2023,0.059,Algae like,Aripo,HP,0.079,0.099,0.126,,18.95,0.1334,0.02265,30.24,0.0925,8.61241,0.1729224
10,AHPF2,AH8,1,7/12/2023,6/1/2023,0.063,Invert like,Aripo,HP,0.088,0.086,0.106,,17.83,0.1262,0.023901,37.55,0.0956,4.998682,1.4179635
11,ALYF2,AL7,1,7/12/2023,5/28/2023,0.076,Algae like,Aripo,LP,0.089,0.107,0.127,,18.65,0.1481,0.027062,27.29,0.1097,2.017547,0.2075068
12,ALPF4,AL7,1,7/12/2023,5/28/2023,0.088,Invert like,Aripo,LP,0.116,0.139,0.147,,19.28,0.1664,0.031966,35.2,0.1265,4.047071,0.9337808
13,ALYF3,AL3,1,7/12/2023,5/28/2023,0.057,Algae like,Aripo,LP,0.074,0.081,0.086,,17.25,0.101,0.018686,19.07,0.0784,3.98392,1.5217169
14,AHPF3,AH8,1,7/12/2023,6/1/2023,0.059,Invert like,Aripo,HP,0.083,0.096,0.111,,18.8,0.1216,0.022375,25.78,0.0937,15.197475,1.5908858
15,AHPF4,AH9,1,8/1/2023,6/4/2023,0.059,Invert like,Aripo,HP,0.068,0.07,0.111,,17.81,0.1193,0.020931,27.79,0.0791,5.550453,4.2760202
16,AHPF5,AH9,1,8/1/2023,6/4/2023,0.058,Invert like,Aripo,HP,0.066,0.083,0.102,,18.74,0.144,0.027113,31.35,0.1026,6.495295,5.93891695
17,AHYF5,AH9,1,8/1/2023,6/4/2023,0.068,Algae like,Aripo,HP,0.09,0.098,0.101,,17.65,0.1203,0.022966,28.49,0.085,1.327046,1.42534007
18,ALYF4,AL4,1,8/1/2023,6/6/2023,0.076,Algae like,Aripo,LP,0.098,0.112,0.121,,17.95,0.1367,0.028652,32.24,0.1035,1.391229,-3.05430014
19,ALYF5,AL4,1,8/1/2023,6/6/2023,0.091,Algae like,Aripo,LP,0.124,0.144,0.153,,20.13,0.1781,0.039138,28.22,0.1422,5.731249,-0.78054337
20,ALPF5,AL4,1,8/1/2023,6/6/2023,0.068,Invert like,Aripo,LP,0.096,0.115,0.141,,20.84,0.1693,0.032334,33.04,0.1224,4.537992,0.50905002
21,ALPF6,AL2,2,8/1/2023,6/8/2023,0.045,Invert like,Aripo,LP,0.071,0.098,0.135,,19.6,0.1513,0.029213,29.51,0.1129,8.239981,0.06787334
22,ALYF6,AL2,2,8/1/2023,6/8/2023,0.055,Algae like,Aripo,LP,0.08,0.094,0.122,,20.25,0.1404,0.027424,31.03,0.1063,8.84113,0.37330335
23,ALPF7,AL2,2,8/1/2023,6/8/2023,0.047,Invert like,Aripo,LP,0.077,0.092,0.127,,19.98,0.1564,0.03103,29.24,0.1175,7.846749,1.42534007
24,AHPF6,AH7,1,8/1/2023,6/5/2023,0.058,Invert like,Aripo,HP,0.087,0.096,0.107,,17.99,0.1306,0.024166,22.36,0.0921,6.843148,0.20362001
25,AHYF6,AH7,1,8/1/2023,6/5/2023,0.065,Algae like,Aripo,HP,0.086,0.087,0.109,,17.59,0.136,0.026075,20.48,0.1023,5.686954,1.28959339
26,AHPF7,AH7,1,8/1/2023,6/5/2023,0.05,Invert like,Aripo,HP,0.083,0.097,0.124,,18.89,0.1686,0.030376,32.5,0.1206,6.007145,2.85068014
27,ALYF7,AL2,2,8/1/2023,6/8/2023,0.051,Algae like,Aripo,LP,0.077,0.081,0.101,,18.34,0.1323,0.025128,26.48,0.1014,3.769607,0.98416338
28,ALPF8,AL2,2,8/1/2023,6/8/2023,0.049,Invert like,Aripo,LP,0.076,0.082,0.118,,19.82,0.1488,0.027371,30.84,0.1163,5.668151,3.83484352
29,ALYF8,AL2,2,8/1/2023,6/8/2023,0.053,Algae like,Aripo,LP,0.071,0.08,0.089,,17.23,0.1103,0.020277,28.61,0.0842,3.453213,-1.69683341
30,AHYF7,AH11,2,8/1/2023,6/11/2023,0.061,Algae like,Aripo,HP,0.083,0.102,0.131,,18.55,0.1715,0.033546,45.67,0.1274,10.938369,-0.57692336
31,AHPF8,AH11,2,8/1/2023,6/11/2023,0.055,Invert like,Aripo,HP,0.09,0.097,0.125,,18.37,0.157,0.032855,30.92,0.1215,6.594733,0.54298669
32,AHYF8,AH11,2,8/1/2023,6/11/2023,0.052,Algae like,Aripo,HP,0.074,0.081,0.11,,17.87,0.1376,0.026687,35.13,0.1085,5.610115,0.84841671
33,ALPF9,AL6,1,8/1/2023,6/6/2023,0.134,Invert like,Aripo,LP,0.157,0.151,0.171,,20.64,0.199,0.040509,30.61,0.1567,15.851966,2.23982011
34,,AH11,2,8/1/2023,6/11/2023,0.049,Algae like,Aripo,HP,0.075,0.075,0.091,,16.56,0.1097,0.022003,30.97,0.085,4.917665,2.54525012
35,ALYF9,AL10,3,9/13/2023,7/13/2023,0.053,Algae like,Aripo,LP,0.078,0.115,0.151,,18.09,0.1581,0.030028,32.66,0.1055,3.6075601,0.86236148
36,ALPF10,AL4,3,9/22/2023,7/24/2023,0.054,Invert like,Aripo,LP,0.083,0.111,0.163,,21.37,0.1787,0.04028,44.43,0.1487,8.14836892,-2.76213024
37,AHYF10,AH2,2,9/13/2023,7/12/2023,0.069,Algae like,Aripo,HP,0.078,0.105,0.105,,18.29,0.1303,0.026009,22.92,0.098,4.2611915,0.32338556
38,AHPF9,AH2,2,9/13/2023,7/12/2023,0.065,Invert like,Aripo,HP,0.077,0.089,0.105,,18.09,0.1304,0.022929,31.61,0.0873,5.0071331,0.17965864
39,ALYF10,AL7,3,9/13/2023,7/12/2023,0.08,Algae like,Aripo,LP,0.092,0.125,0.139,,19.16,0.1813,0.031852,38.42,0.1238,4.0560575,0.89829321
40,ALYF11,AL7,3,9/13/2023,7/12/2023,0.074,Algae like,Aripo,LP,0.089,0.128,0.137,,19.9,0.1822,0.030869,43.53,0.1157,4.5129467,0.39524901
41,ALPF11,AL7,3,9/13/2023,7/12/2023,0.069,Invert like,Aripo,LP,0.103,0.137,0.171,,22.12,0.2297,0.045025,45.79,0.1644,11.2853506,2.98233346
42,ALPF12,AL7,3,9/13/2023,7/12/2023,0.075,Invert like,Aripo,LP,0.099,0.126,0.165,,20.91,0.2116,0.037212,45.64,0.1466,19.0244949,0.64677111
43,AHYF11,AH5,3,9/13/2023,7/12/2023,0.058,Algae like,Aripo,HP,0.081,0.105,0.133,,18.65,0.148,0.02751,16.58,0.101,3.5366957,0.46711247
44,AHYF12,AH5,3,9/13/2023,7/12/2023,0.075,Algae like,Aripo,HP,0.087,0.112,0.131,,17.55,0.1588,0.026799,40.75,0.0992,3.0956577,0.46711247
45,AHPF10,AH5,3,9/13/2023,7/12/2023,0.058,Invert like,Aripo,HP,0.084,0.128,0.164,,21,0.2262,0.040555,45.04,0.154,20.5070538,-0.21559037
46,AHPF11,AH5,3,9/13/2023,7/12/2023,0.054,Invert like,Aripo,HP,0.081,0.108,0.125,,19.87,0.1655,0.028409,25.25,0.1076,13.1035833,2.04810852
47,AHYF13,AH6,3,9/13/2023,7/16/2023,0.071,Algae like,Aripo,HP,0.093,0.116,0.135,,19.46,0.1718,0.032407,29.12,0.1223,4.6341623,1.83251815
48,AHYF14,AH6,3,9/13/2023,7/16/2023,0.055,Algae like,Aripo,HP,0.08,0.113,0.143,,20.2,0.1875,0.037107,38.34,0.1368,2.7133626,0.28745383
49,AHPF12,AH6,3,9/13/2023,7/16/2023,0.054,Invert like,Aripo,HP,0.086,0.138,0.171,,21.4,0.231,0.038928,20.48,0.1494,20.1434073,1.97624507
50,AHPF13,AH6,3,9/13/2023,7/16/2023,0.066,Invert like,Aripo,HP,0.088,0.129,0.166,,21.35,0.2126,0.041204,42.95,0.1499,7.3579681,-1.65285951
51,ALYF12,AL3,3,9/13/2023,7/16/2023,0.048,Algae like,Aripo,LP,0.06,0.085,0.103,,18.7,0.1225,0.025513,21.03,0.0962,1.3995729,3.77283149
52,ALYF13,AL3,3,9/13/2023,7/16/2023,0.055,Algae like,Aripo,LP,0.071,0.099,0.124,,20.29,0.1521,0.0298,24.33,0.1142,1.2802223,0.07186346
53,ALPF13,AL3,3,9/13/2023,7/16/2023,0.061,Invert like,Aripo,LP,0.079,0.118,0.165,,21.82,0.209,0.037544,42.52,0.1478,13.8215521,-0.17965864
54,ALPF14,AL9,3,9/22/2023,7/26/2023,0.076,Invert like,Aripo,LP,0.097,0.13,0.174,,21.9,0.213,0.040112,45.26,0.1515,9.97482304,-2.76213024
55,ALYF14,AL9,3,9/22/2023,7/26/2023,0.069,Algae like,Aripo,LP,0.097,0.123,0.144,,21.19,0.179,0.035636,36.38,0.1325,4.93336622,0.35411926
56,AHPF14,AH4,4,9/22/2023,7/31/2023,0.067,Invert like,Aripo,HP,0.097,0.14,0.18,,21.17,0.2096,0.039805,52.67,0.1471,11.3144075,0.03541193
57,AHYF17,AH4,4,9/22/2023,7/31/2023,0.057,Algae like,Aripo,HP,0.077,0.11,0.146,,20.42,0.183,0.034354,39.82,0.1375,3.9975048,2.47883483
58,AHPF15,AH4,4,9/22/2023,7/31/2023,0.052,Invert like,Aripo,HP,0.088,0.127,0.165,,20.34,0.2007,0.038374,52.72,0.1492,21.31971764,1.87683209
59,AHYF15,AH4,4,9/22/2023,7/31/2023,0.057,Algae like,Aripo,HP,0.076,0.098,0.129,,19.7,0.1664,0.031639,44.28,0.124,10.8340048,0.28329541
60,ALYF15,AL2,4,9/22/2023,7/31/2023,0.053,Algae like,Aripo,LP,0.074,0.098,0.124,,19.79,0.1739,0.033051,37.99,0.1296,13.06972507,0.03541193
61,ALPF15,AL2,4,9/22/2023,7/31/2023,0.055,Invert like,Aripo,LP,0.075,0.098,0.143,,20.49,0.1828,0.037977,41.4,0.1355,22.41910075,2.54965868
62,ALPF16,AL2,4,9/22/2023,7/31/2023,0.062,Invert like,Aripo,LP,0.1,0.129,0.172,,21.63,0.2168,0.042913,43.8,0.1588,7.66981392,1.80600823
63,AHPF16,AH11,4,9/22/2023,7/31/2023,0.079,Invert like,Aripo,HP,0.096,0.141,0.186,,21.26,0.2369,0.045224,50.57,0.1745,10.61228047,3.71825225
64,AHYF16,AH11,4,9/22/2023,7/31/2023,0.063,Algae like,Aripo,HP,0.073,0.091,0.121,,28.18,0.1445,0.028919,,0.1042,3.43765088,2.86836602
65,ALYF16,AL4,3,9/22/2023,7/24/2023,0.088,Algae like,Aripo,LP,0.1,0.126,0.144,,20.57,0.1746,0.036524,36.7,0.1357,7.09794993,1.23941742
66,AHPF17,AH4,4,9/27/2023,7/31/2023,0.058,Invert like,Aripo,HP,0.093,0.13,0.187,,21.43,0.2146,0.040063,45.22,0.1543,13.1664728,1.5670516
67,AHYF18,AH12,4,9/27/2023,8/2/2023,0.046,Algae like,Aripo,HP,0.065,0.097,0.134,,18.92,0.1593,0.028652,41.27,0.1124,16.4943029,0.7089043
68,AHPF18,AH12,4,9/27/2023,8/2/2023,0.043,Invert like,Aripo,HP,0.077,0.1,0.159,,20.27,0.1995,0.037715,41.93,0.1476,13.9365492,2.4625096
69,AHYF19,AH12,4,9/27/2023,8/2/2023,0.042,Algae like,Aripo,HP,0.068,0.104,0.146,,19.62,0.1692,0.032351,26.28,0.1261,3.8769679,0
70,AHPF19,AH12,4,9/27/2023,8/2/2023,0.049,Invert like,Aripo,HP,0.077,0.119,0.167,,20.96,0.2289,0.041328,43.29,0.1626,17.8309355,0.9327688
71,ALYF17,AL10,4,9/27/2023,8/8/2023,0.062,Algae like,Aripo,LP,0.079,0.11,0.143,,19.75,0.1863,0.033306,36.54,0.1346,6.7033317,3.2460354
72,ALPF17,AL10,4,9/27/2023,8/8/2023,0.072,Invert like,Aripo,LP,0.093,0.129,0.189,,21.14,0.23,0.040817,50.74,0.166,15.8782418,3.2460354
73,ALYF18,AL10,4,9/27/2023,8/8/2023,0.056,Algae like,Aripo,LP,0.077,0.105,0.134,,19.31,0.1676,0.033011,32.87,0.1265,2.5247505,1.0820118
74,ALPF18,AL10,4,9/27/2023,8/8/2023,0.059,Invert like,Aripo,LP,0.081,0.12,0.179,,20.67,0.2214,0.039982,49.02,0.1589,13.5918484,-2.3878881
75,AHYF20,AH5,4,9/27/2023,8/8/2023,0.04,Algae like,Aripo,HP,0.067,0.088,0.117,,18.13,0.1356,0.024644,34.12,0.0971,3.2132354,1.6789838
76,AHPF20,AH5,4,9/27/2023,8/8/2023,0.038,Invert like,Aripo,HP,0.068,0.102,0.154,,20.02,0.1916,0.034197,35.84,0.1305,28.0216132,2.8356171
77,AHYF21,AH5,4,9/27/2023,8/8/2023,0.047,Algae like,Aripo,HP,0.074,0.089,0.117,,18.4,0.1416,0.027518,34.59,0.105,1.98203,2.3132666
78,AHPF21,AH5,4,9/27/2023,8/8/2023,0.037,Invert like,Aripo,HP,0.07,0.094,0.141,,19.63,0.1864,0.03259,30.97,0.1324,16.0084214,1.0820118
79,ALYF19,AL7,4,9/27/2023,8/8/2023,0.043,Algae like,Aripo,LP,0.072,0.093,0.123,,18.94,0.1481,0.030099,36.36,0.118,2.5669213,0.7089043
80,ALPF19,AL7,4,9/27/2023,8/8/2023,0.053,Invert like,Aripo,LP,,,,,,,,,,,
81,ALYF20,AL7,4,9/27/2023,8/8/2023,0.034,Algae like,Aripo,LP,0.06,0.081,0.104,,16.8,0.1187,0.02296,36.13,0.087,2.4917472,0.8581473
82,ALPF20,AL7,4,9/27/2023,8/8/2023,0.034,Invert like,Aripo,LP,0.064,0.099,0.148,,20.11,0.1798,0.034155,48.05,0.1357,9.8294751,2.5744418
83,ALYF21,AL4,4,9/27/2023,8/8/2023,0.066,Algae like,Aripo,LP,0.089,0.106,0.132,,19.4,0.1578,0.029971,33.96,0.1197,4.6296259,1.044701
84,ALPF21,AL4,4,9/27/2023,8/8/2023,0.062,Invert like,Aripo,LP,0.079,0.101,0.132,,19.65,0.1525,0.031231,27.24,0.1255,7.7025975,1.6043623
85,AHPF22,AH5,4,9/29/2023,8/8/2023,0.044,Invert like,Aripo,HP,0.076,0.103,0.165,,20.76,0.2068,0.036545,34.79,0.1494,20.9265848,0.85952543
86,AHYF22,AH6,4,9/29/2023,8/9/2023,0.047,Algae like,Aripo,HP,0.077,0.099,0.121,,18.24,0.1449,0.026612,29.74,0.1063,4.1079082,-1.60693886
87,AHPF23,AH6,4,9/29/2023,8/9/2023,0.04,Invert like,Aripo,HP,0.075,0.096,0.14,,19.9,0.1872,0.032717,33.61,0.1362,4.89536,2.35435228
88,AHYF23,AH6,4,9/29/2023,8/9/2023,0.038,Algae like,Aripo,HP,0.063,0.088,0.128,,18.59,0.163,0.030872,32.16,0.1217,3.2330759,-0.93426678
89,ALPF22,AL7,4,9/29/2023,8/8/2023,0.038,Invert like,Aripo,LP,0.073,0.091,0.147,,19.48,0.1935,0.030974,51.56,0.1472,,
90,ALYF22,AL7,4,9/29/2023,8/8/2023,0.05,Algae like,Aripo,LP,0.078,0.093,0.131,,18.03,0.1363,0.024477,33.78,0.1004,3.0017747,-0.48581872
91,ALPF23,AL7,4,9/29/2023,8/8/2023,0.044,Invert like,Aripo,LP,0.079,0.1,0.155,,21.03,0.1987,0.038311,39.27,0.1502,8.6455225,2.31698161
92,AHPF24,AH13,4,9/29/2023,8/10/2023,0.029,Invert like,Aripo,HP,0.055,0.08,0.136,,19.95,0.1767,0.035566,42.03,0.1364,9.7418898,1.86853355
93,AHYF24,AH13,4,9/29/2023,8/10/2023,0.042,Algae like,Aripo,HP,0.07,0.088,0.122,,19.05,0.1556,0.029704,39.94,0.1225,9.7249278,1.56956819
94,AHPF25,AH13,4,9/29/2023,8/10/2023,0.047,Invert like,Aripo,HP,0.076,0.113,0.163,,20.41,0.1898,0.036282,44.87,0.1411,6.7951134,0
95,AHYF25,AH13,4,9/29/2023,8/10/2023,0.043,Algae like,Aripo,HP,0.067,0.085,0.126,,18.92,0.1483,0.030355,36.76,0.1152,2.1721747,-2.87754167
96,AHYF26,AH6,4,9/29/2023,8/9/2023,0.046,Algae like,Aripo,HP,0.055,0.078,0.115,,18.12,0.1428,0.028515,29.77,0.109,3.671006,1.9432749
97,ALYF23,AL13,4,9/29/2023,8/8/2023,0.096,Algae like,Aripo,LP,0.115,0.123,0.162,,20.41,0.181,0.035308,25.25,0.1356,3.9557634,1.4200855
98,ALPF24,AL3,4,9/29/2023,8/13/2023,0.058,Invert like,Aripo,LP,0.083,0.104,0.158,,20.39,0.1959,0.03848,32.59,0.1454,6.8043654,0.11211201
99,ALYF24,AL4,4,9/29/2023,8/17/2023,0.063,Algae like,Aripo,LP,0.087,0.104,0.139,,19.58,0.1588,0.030264,34.73,0.122,3.3656885,3.62495509
100,ALPF25,AL4,4,9/29/2023,8/17/2023,0.048,Invert like,Aripo,LP,0.071,0.101,0.164,,21.4,0.2004,0.039639,44.7,0.1561,5.9942974,2.50383496
101,ALYF25,AL6,3,9/29/2023,8/18/2023,0.035,Algae like,Aripo,LP,0.053,0.068,0.097,,17.15,0.1129,0.023263,28.94,0.0879,3.1364434,0.29896537
102,ALPF26,AL6,3,9/29/2023,8/18/2023,0.039,Invert like,Aripo,LP,0.058,0.079,0.143,,19.86,0.171,0.034214,35.13,0.1356,6.4435356,0.97163745