SlNo,Fish_ID,Parent,Clutch_no,Date_setup,Date_birth,Age in days at t0,Weight0g,SL0mm,Treatment,Stream,Pred,Age in days at t1,Weight1g,SL1mm,Ageindaysatt2,Weight2g,SL2mm,Ageindaysatt3,Weight3g,SL3mm,finalSLmm,wetmass,wetmasswo,drymassg,PerC,PerN,CN,Crev,Nrev,CNrev,BodyPweight,Pabs,p conc,abs1,abs2,abs3,abs4,avabs,Dead
1,YLPF1,YLP1,1,5/8/2024,3/25/24,,0.047,13.05,Invert like,Yarra,LP,,0.074,14.61,,0.103,16.46,,0.151,18.24,19.73,0.1828,0.1222,0.0358,44.16,11.11,4.634613861,43.61,10.96,3.979014599,0.003096,0.2063,0,0.0068,0.0071,0.009,0.008,0.007725,No
2,YHPF1,YHP1,1,5/8/2024,3/23/2024,,0.047,13.07,Invert like,Yarra,HP,,0.086,15.65,,0.125,17.22,,0.168,19.06,20.24,0.2037,0.1468,0.0405,46.65,11.45,4.750558952,46.06,11.3,4.076106195,0.003305,0.209,0.025,0.0159,0.0258,0.0227,0.0192,0.0209,No
3,YHYF1,YHP1,1,5/8/2024,3/23/2024,,0.042,12.65,Algae like,Yarra,HP,,0.067,14.84,,0.104,17.17,,0.136,18.71,19.32,0.1581,0.1204,0.0344,47.84,11.22,4.971607843,47.23,11.07,4.266485998,0.003349,0.2085,0.05,0.0315,0.0514,0.0417,0.0409,0.041375,No
4,YHPF2,YHP1,1,5/8/2024,3/23/2024,,0.04,12.3,Invert like,Yarra,HP,,0.08,15.81,,0.117,16.88,,0.152,18.02,19.59,0.1728,0.1232,0.0347,47.49,10.7,5.175078505,46.89,10.56,4.440340909,0.003937,0.2592,0.1,0.0597,0.066,0.0688,0.0673,0.06545,No
5,YHYF2,YHP1,1,5/8/2024,3/23/2024,,0.042,12.7,Algae like,Yarra,HP,,0.069,14.68,,0.093,16,,0.119,17.44,18.18,0.1333,0.0958,0.0258,45.66,11.58,4.597544041,45.08,11.43,3.944006999,0.002421,0.1635,0.2,0.1239,0.1288,0.1291,0.1202,0.1255,No
6,YLYF1,YLP2,1,5/8/2024,3/29/2024,,0.068,13.57,Algae like,Yarra,LP,,0.083,15.26,,0.091,16.11,,0.11,16.45,18.02,0.1286,0.1038,0.0296,47.23,11.06,4.979220615,46.63,10.91,4.274060495,0.003147,0.2232,0.4,0.2479,0.2703,0.2529,0.2705,0.2604,No
7,YHPF3,YHP1,1,5/8/2024,3/25/2024,,0.039,11.5,Invert like,Yarra,HP,,NA,N/A,,,,,,,,,,,,,,,,,,,0.7,0.4234,0.4361,0.4535,0.4231,0.434025,Yes
8,YHYF3,YHP1,1,5/8/2024,3/25/2024,,0.035,11.73,Algae like,Yarra,HP,,0.062,14.08,,0.064,14.59,,0.083,15.46,16.63,0.1028,0.0813,0.0219,43.97,11.49,4.462055701,43.41,11.34,3.828042328,0.002063,0.1727,1,0.5871,0.599,0.6132,0.5948,0.598525,No
9,YLPF2,YLP7,1,5/8/2024,4/3/2024,,0.051,12.98,Invert like,Yarra,LP,,0.088,15.97,,0.114,17.88,,0.136,18.42,20.21,0.1779,0.1294,0.035,43.51,10.89,4.658646465,42.96,10.74,4,0.003124,0.2388,,,,,,,No
10,YLYF2,YLP1,1,5/8/2024,3/25/2024,,0.036,11.87,Algae like,Yarra,LP,,0.059,14.07,,0.084,15.44,,0.118,17.01,18.2,0.1473,0.1068,0.0291,47.19,11.22,4.904058824,46.59,11.07,4.208672087,0.003245,0.2146,,,,,,,No
11,YLPF3,YLP1,1,5/8/2024,3/25/2024,,0.043,13.06,Invert like,Yarra,LP,,0.065,14.82,,0.096,15.98,,0.126,16.99,18.18,0.1234,0.089,0.0225,42.01,9.89,4.952847321,41.48,9.76,4.25,0.003173,0.242,,,,,,,No
12,YLYF3,YLP1,1,5/8/2024,3/25/2024,,0.063,11.89,Algae like,Yarra,LP,,0.055,13.49,,0.077,14.97,,0.097,15.27,16.82,0.1195,0.0914,0.0248,46.54,10.86,4.996836096,45.95,10.71,4.29038282,0.003423,0.2366,,,,,,,No
13,YLPF4,YLP10,1,5/14/2024,4/7/2024,,0.039,12.51,Invert like,Yarra,LP,,0.064,14.36,,0.084,15.27,,0.113,16.47,18.31,0.1399,0.1026,0.0284,46.03,11.23,4.779250223,45.45,11.08,4.10198556,0.003101,0.213,,,,,,,No
14,YLYF4,YLP10,1,5/14/2024,4/7/2024,,0.033,11.45,Algae like,Yarra,LP,,0.058,13.89,,0.08,15.25,,0.1,16.14,17.85,0.1274,0.0945,0.0253,43.67,11.18,4.55449195,43.12,11.04,3.905797101,0.003167,0.2359,,,,,,,No
15,YLPF5,YLP10,1,5/14/2024,4/7/2024,,0.033,11.93,Invert like,Yarra,LP,,0.065,14.65,,0.095,16.23,,0.136,18.45,19.58,0.1637,0.1208,0.0322,45.28,11.16,4.730867384,44.71,11.01,4.060853769,0.003207,0.2219,,,,,,,No
16,YLYF5,YLP3,2,5/14/2024,4/11/2024,,0.028,11.55,Algae like,Yarra,LP,,0.048,12.83,,0.074,14.87,,0.102,16.11,17.94,0.1303,0.0937,0.0257,45.8,11.47,4.65586748,45.22,11.32,3.994699647,0.003334,0.2397,,,,,,,No
17,YLPF6,YLP3,2,5/14/2024,4/11/2024,,0.025,10.84,Invert like,Yarra,LP,,0.045,12.96,,0.053,14.58,,,,,,,,,,,,,,,,,,,,,,Yes
18,YLYF6,YLP3,2,5/14/2024,4/11/2024,,0.04,12.68,Algae like,Yarra,LP,,0.055,13.45,,0.083,14.92,,0.103,16.06,17.69,0.1313,0.093,0.0254,46.85,11.36,4.808723592,46.26,11.21,4.126672614,0.003203,0.2698,,,,,,,No
19,YLPF7,YLP3,2,5/14/2024,4/11/2024,,0.034,12.04,Invert like,Yarra,LP,,0.057,14.12,,0.091,16.25,,0.135,18.03,19.2,0.1571,0.1221,0.0334,47.11,10.86,5.058034991,46.51,10.72,4.338619403,0.003502,0.2123,,,,,,,No
20,YLYF7,YLP3,2,5/14/2024,4/11/2024,,0.036,12.41,Algae like,Yarra,LP,,0.053,13.71,,0.08,15.36,,0.109,16.38,17.89,0.1221,0.089,0.0232,45.3,11.43,4.621154856,44.73,11.28,3.965425532,0.00318,0.2173,,,,,,,No
21,YLPF8,YLP9,1,5/14/2024,4/15/2024,,0.022,10.17,Invert like,Yarra,LP,,0.045,13.18,,0.08,15.15,,0.095,16.15,18.96,0.1384,0.1118,0.0296,46.21,11.21,4.806499554,45.63,11.06,4.125678119,0.003202,0.2116,,,,,,,No
22,YHPF3,YHP3,2,5/14/2024,4/15/2024,,0.028,11.43,Invert like,Yarra,HP,,0.051,13.65,,0.074,15.11,,0.085,15.34,17.22,0.0984,0.0651,0.0165,41.98,11.1,4.409790991,41.45,10.95,3.785388128,0.001949,0.1614,,,,,,,No
23,YHPF4,YHP3,2,5/14/2024,4/15/2024,,0.032,11.95,Invert like,Yarra,HP,,0.059,14.31,,0.078,15.65,,0.104,17.02,18.46,0.1274,0.0826,0.0209,42.1,10.92,4.49529304,41.57,10.77,3.859795729,0.003101,0.2454,,,,,,,No
24,YHYF4,YHP3,2,5/14/2024,4/15/2024,,0.033,12.02,Algae like,Yarra,HP,,0.058,14.03,,0.073,15.65,,0.112,16.81,18.63,0.1322,0.0963,0.0252,45.04,11.67,4.500140531,44.47,11.51,3.863596872,0.002944,0.1902,,,,,,,No
25,YHPF5,YHP3,2,5/14/2024,4/15/2024,,0.03,11.2,Invert like,Yarra,HP,,0.051,13.63,,0.078,14.85,,0.114,16.98,18.31,0.1454,0.0984,0.0259,45.78,11.23,4.753292965,45.2,11.08,4.079422383,0.003274,0.2137,,,,,,,No
26,YHYF5,YHP3,2,5/14/2024,4/15/2024,,0.03,11.64,Algae like,Yarra,HP,,0.06,14.11,,0.074,15.07,,0.1,16.32,18.18,0.1336,0.0964,0.0252,45.09,11.38,4.619942004,44.52,11.23,3.964381122,0.003669,0.2451,,,,,,,No
27,YHPF6,YHP1,2,5/14/2024,4/17/2024,,0.024,10.6,Invert like,Yarra,HP,,0.055,14.24,,0.087,15.85,,0.114,17.34,18.91,0.1461,0.1095,0.0293,46.62,11.17,4.866510295,46.03,11.02,4.176950998,0.003303,0.1944,,,,,,,No
28,YHYF6,YHP1,2,5/14/2024,4/17/2024,,0.029,11.15,Algae like,Yarra,HP,,0.05,13.48,,0.068,14.86,,0.084,15.86,17.61,0.1113,0.0891,0.0242,45.15,11.24,4.683709964,44.58,11.09,4.019837692,0.003375,0.2237,,,,,,,No
29,YHPF7,YHP1,2,5/14/2024,4/17/2024,,0.024,10.5,Invert like,Yarra,HP,,0.048,13.47,,0.063,14.81,,0.079,15.11,17.28,0.1099,0.0829,0.0226,46.13,11.36,4.734822183,45.55,11.2,4.066964286,0.003353,0.2126,,,,,,,No
30,YHYF7,YHP1,2,5/14/2024,4/17/2024,,0.024,10.74,Algae like,Yarra,HP,,0.042,12.67,,0.067,14.8,,0.076,15.12,16.98,0.105,0.08,0.0213,45.6,11.22,4.738823529,45.02,11.07,4.066847335,0.00322,0.2023,,,,,,,No
31,YHYF8,YHP1,2,5/14/2024,4/17/2024,,0.024,10.5,Algae like,Yarra,HP,,0.055,13.97,,0.069,15.14,,0.102,16.71,17.56,0.118,0.0897,0.0255,47.88,10.87,5.135977921,47.27,10.73,4.405405405,0.003424,0.1976,,,,,,,No
32,YLYF8,YLP9,1,5/17/2024,4/15/2024,,0.039,11.67,Algae like,Yarra,LP,,0.062,13.39,,0.085,15.15,,0.12,16.88,18.77,0.1537,0.1101,0.0297,47.02,11.28,4.860400709,46.43,11.13,4.171608266,0.003327,0.2032,,,,,,,No
33,YLPF9,YLP4,2,5/17/2024,4/12/2024,,0.045,12.6,Invert like,Yarra,LP,,0.064,14.5,,0.078,15.3,,0.112,17.23,18.35,0.1362,0.1022,0.0263,44.7,10.27,5.074995131,45.56,10.45,4.359808612,0.003907,0.2604,,,,,,,No
34,YLYF9,YLP4,2,5/17/2024,4/12/2024,,0.033,11.19,Algae like,Yarra,LP,,0.055,13.67,,0.077,15.76,,0.104,16.62,18.16,0.1244,0.0961,0.0271,46.64,10.66,5.101523452,47.53,10.84,4.384686347,0.00331,0.2197,,,,,,,No
35,YLPF10,YLP4,2,5/17/2024,4/12/2024,,0.04,11.91,Invert like,Yarra,LP,,0.069,14.85,,0.082,15.88,,0.123,17.09,18.51,0.1425,0.1098,0.0297,45.19,10.59,4.975593957,46.06,10.78,4.272727273,0.003529,0.2354,,,,,,,No
36,YLYF10,YLP4,2,5/17/2024,4/12/2024,,0.033,11.53,Algae like,Yarra,LP,,0.057,13.49,,0.071,14.62,,0.087,15.7,17.16,0.1052,0.0826,0.0216,43.8,10.59,4.822549575,44.64,10.77,4.144846797,0.003282,0.2136,,,,,,,No
37,YLPF11,YLP4,2,5/17/2024,4/12/2024,,0.038,12.15,Invert like,Yarra,LP,,0.065,14.47,,0.079,15.27,,0.12,17.14,19.07,0.156,0.1116,0.031,45.62,10.72,4.962026119,46.5,10.91,4.262144821,0.00332,0.2211,,,,,,,No
38,YLYF11,YLP9,1,5/17/2024,4/15/2024,,0.025,10.71,Algae like,Yarra,LP,,0.044,13.02,,0.063,14.66,,0.086,15.02,16.72,0.1036,0.0773,0.0199,40.24,11,4.26544,41.01,11.2,3.661607143,0.003213,0.2543,,,,,,,No
39,YLPF12,YLP3,2,5/17/2024,4/11/2024,,0.045,13.03,Invert like,Yarra,LP,,0.072,14.82,,0.095,16.77,,0.135,18.16,19.74,0.1621,0.1225,0.0316,45.45,10.93,4.848554437,46.33,11.12,4.166366906,0.003509,0.2191,,,,,,,No
40,YLYF12,YLP4,2,5/17/2024,4/12/2024,,0.035,12.23,Algae like,Yarra,LP,,0.067,14.91,,0.09,16.02,,0.12,17.32,18.82,0.1476,0.1107,0.029,46.51,10.92,4.966177656,47.41,11.11,4.267326733,0.003352,0.1883,,,,,,,No
41,YHPF8,YHP7,2,5/17/2024,4/17/2024,,0.03,11.5,Invert like,Yarra,HP,,0.055,14.49,,0.085,16.17,,0.109,17.5,19.57,0.1414,0.1123,0.0299,46.19,10.49,5.134179218,47.07,10.68,4.407303371,0.003296,0.2045,,,,,,,No
42,YHPF9,YHP7,2,5/17/2024,4/17/2024,,0.026,11,Invert like,Yarra,HP,,0.058,14.05,,0.078,15.8,,0.112,16.75,18.95,0.1443,0.1065,0.0276,45.45,10.61,4.994787936,46.32,10.79,4.292863763,0.003757,0.2306,,,,,,,No
43,YHYF9,YHP7,2,5/17/2024,4/17/2024,,0.026,11.05,Algae like,Yarra,HP,,0.052,13.72,,0.07,15.22,,0.105,16.9,18.19,0.1243,0.0947,0.024,44.72,11.24,4.639103203,45.58,11.44,3.984265734,0.003448,0.2368,,,,,,,No
44,YHPF10,YHP7,2,5/17/2024,4/17/2024,,0.033,11.86,Invert like,Yarra,HP,,0.061,14.46,,0.096,16.44,,0.115,17.37,19.71,0.1612,0.1176,0.0313,45.95,10.92,4.906382784,46.83,11.11,4.215121512,0.00372,0.2221,,,,,,,No
45,YHYF10,YHP7,2,5/17/2024,4/17/2024,,0.024,10.85,Algae like,Yarra,HP,,0.047,13.1,,0.074,15.23,,0.101,16.71,17.87,0.1188,0.0923,0.0248,46,10.78,4.975510204,46.88,10.97,4.273473108,0.003389,0.2022,,,,,,,No
46,YHPF11,YHP7,2,5/17/2024,4/17/2024,,0.031,11.64,Invert like,Yarra,HP,,0.055,13.89,,0.085,15.55,,0.129,17.87,19.37,0.1566,0.112,0.0281,45.28,11.35,4.651672247,46.15,11.55,3.995670996,0.003855,0.2464,,,,,,,No
47,YHYF11,YHP3,2,5/17/2024,4/15/2024,,0.045,10.97,Algae like,Yarra,HP,,0.068,14.52,,0.097,16.01,,0.136,17.4,18.74,0.1506,0.1068,0.0276,46.3,11.25,4.798737778,47.19,11.44,4.125,0.003447,0.2226,,,,,,,No
48,YHPF12,YHP1,2,5/17/2024,4/17/2024,,0.026,10.73,Invert like,Yarra,HP,,0.048,13.36,,0.065,14.61,,0.098,16.45,18.53,0.1415,0.1067,0.0268,43.23,11.01,4.578217984,44.06,11.2,3.933928571,0.003358,0.2015,,,,,,,No
49,YHYF12,YHP1,2,5/17/2024,4/17/2024,,0.023,10.4,Algae like,Yarra,HP,,0.037,12.37,,0.047,13.59,,0.072,14.94,15.86,0.0754,0.0607,0.0151,43.96,11.12,4.60947482,44.81,11.32,3.958480565,0.001466,0.0973,,,,,,,No
50,YLPF13,YLP1,2,5/20/2024,4/18/2024,,0.033,11.42,Invert like,Yarra,LP,,0.06,13.65,,0.092,15.49,,0.114,16.62,18.72,0.1449,0.1095,0.0274,44.89,11.02,4.749704174,45.75,11.21,4.08117752,0.003175,0.2237,,,,,,,No
51,YLYF13,YLP1,2,5/20/2024,4/18/2024,,0.028,10.69,Algae like,Yarra,LP,,0.039,12.32,,0.052,13.8,,0.073,14.55,15.55,0.0921,0.0696,0.0175,44.34,10.72,4.822802239,45.2,10.91,4.142988084,0.003052,0.2252,,,,,,,No
52,YLPF14,YLP1,2,5/20/2024,4/18/2024,,0.025,10.16,Invert like,Yarra,LP,,0.045,12.56,,0.075,14.68,,0.108,16.26,17.66,0.1369,0.099,0.0244,45.22,10.92,4.828435897,46.09,11.11,4.148514851,0.003349,0.2271,,,,,,,No
53,YLYF14,YLP1,2,5/20/2024,4/18/2024,,0.026,10.13,Algae like,Yarra,LP,,0.038,12.14,,0.065,13.82,,0.09,15,16.74,0.1059,0.0808,0.203,44.72,10.75,4.85056,45.58,10.93,4.170173833,0.00331,0.2195,,,,,,,No
54,YLPF15,YLP1,2,5/20/2024,4/18/2024,,0.022,9.98,Invert like,Yarra,LP,,0.047,12.44,,0.069,14.17,,0.103,15.88,17.8,0.134,0.1029,0.0258,44.95,10.96,4.782089416,45.82,11.15,4.10941704,0.003326,0.1954,,,,,,,No
55,YLYF15,YLP9,1,5/20/2024,4/15/2024,,0.03,11.22,Algae like,Yarra,LP,,NA,NA,,,,,,,,,,,,,,,,,,,,,,,,,Yes
56,YLPF16,YLP9,1,5/20/2024,4/15/2024,,0.025,10.07,Invert like,Yarra,LP,,0.046,12.63,,0.071,14.68,,0.112,16.48,18.71,0.1526,0.1233,0.0315,45.63,10.83,4.912703601,46.51,11.02,4.220508167,0.003262,0.2076,,,,,,,No
57,YLYF16,YLP4,2,5/20/2024,4/12/2024,,0.042,12.35,Algae like,Yarra,LP,,0.053,13.4,,0.073,14.62,,0.104,16.43,17.62,0.13,0.0978,0.0247,46.22,10.76,5.008598513,47.1,10.94,4.305301645,0.003161,0.2015,,,,,,,No
58,YLPF17,YLP3,2,5/20/2024,4/11/2024,,0.038,12.52,Invert like,Yarra,LP,,0.064,14.62,,0.092,16.29,,0.137,17.98,19.31,0.1604,0.1259,0.0313,45.57,11.25,4.723077333,46.44,11.44,4.059440559,0.003793,0.2287,,,,,,,No
59,YHPF13,YHP2,2,5/20/2024,4/23/2024,,0.053,13.54,Invert like,Yarra,HP,,0.074,15.72,,0.101,17.34,,0.136,17.82,19.05,0.149,0.1097,0.027,44.52,11.09,4.680822362,45.38,11.28,4.023049645,0.00301,0.2225,,,,,,,No
60,YHYF13,YHP7,2,5/20/2024,4/17/2024,,0.041,12.56,Algae like,Yarra,HP,,0.06,13.82,,0.089,15.89,,0.114,17.09,18.86,0.1526,0.1123,0.028,44.91,10.68,4.903095506,45.77,10.86,4.214548803,0.003366,0.1974,,,,,,,No
61,YHPF14,YHP8,1,5/20/2024,4/19/2024,,0.026,10.63,Invert like,Yarra,HP,,0.049,13.46,,0.064,14.51,,0.105,16.77,19.16,0.1464,0.1096,0.0278,46.76,10.93,4.988303751,47.66,11.12,4.285971223,0.003162,0.1777,,,,,,,No
62,YHYF14,YHP8,1,5/20/2024,4/19/2024,,0.023,10.31,Algae like,Yarra,HP,,0.037,12.23,,0.058,13.77,,0.091,15.93,17.83,0.1267,0.1001,0.0256,46.46,11.2,4.836817857,47.36,11.4,4.154385965,0.003295,0.2064,,,,,,,No
63,YHPF15,YHP8,1,5/20/2024,4/19/2024,,0.02,10.34,Invert like,Yarra,HP,,0.051,13.41,,0.083,15.62,,0.11,17.35,19.06,0.157,0.1199,0.0293,45.93,11,4.86858,46.81,11.19,4.183199285,0.003655,0.2271,,,,,,,No
64,YHYF15,YHP8,1,5/20/2024,4/19/2024,,0.029,11.48,Algae like,Yarra,HP,,0.055,14.04,,0.081,15.73,,0.116,16.96,18.34,0.1523,0.1135,0.0292,46.98,10.69,5.124291862,47.89,10.88,4.401654412,0.003668,0.2263,,,,,,,No
65,YHPF16,YHP5,1,5/20/2024,4/19/2024,,0.024,10.75,Invert like,Yarra,HP,,0.052,14,,0.088,15.59,,0.121,17.12,18.59,0.151,0.1065,0.0252,43.92,10.98,4.664,44.77,11.17,4.008057296,0.003296,0.2207,,,,,,,No
66,YHYF16,YHP5,1,5/20/2024,4/19/2024,,0.024,10.56,Algae like,Yarra,HP,,0.039,12.67,,0.066,14.92,,0.107,16.8,18.01,0.1364,0.1064,0.0258,41.99,10.95,4.471263927,42.79,11.14,3.841113106,0.003469,0.2107,,,,,,,No
67,YHYF17,YHP5,1,5/20/2024,4/19/2024,,0.031,11.45,Algae like,Yarra,HP,,0.049,13.25,,0.079,15.27,,0.103,16.14,17.61,0.129,0.0913,0.0216,43.34,11.2,4.512003571,44.17,11.39,3.877963126,0.003536,0.241,,,,,,,No
68,YLYF17,YLP5,2,5/24/2024,4/25/2024,,0.033,10.94,Algae like,Yarra,LP,,0.053,12.84,,0.081,14.45,,0.104,15.88,17.4,0.1348,0.1023,0.025,45.36,11.33,4.668116505,46.23,11.52,4.013020833,0.003423,0.211,,,,,,,No
69,YLPF18,YLP5,2,5/24/2024,4/25/2024,,0.046,12.59,Invert like,Yarra,LP,,0.065,14.45,,0.083,15.57,,0.09,15.49,17.91,0.1301,0.1005,0.0234,41.12,10.68,4.489318352,41.91,10.87,3.855565777,0.002929,0.2185,,,,,,,No
70,YLYF18,YLP5,2,5/24/2024,4/25/2024,,0.042,12.36,Algae like,Yarra,LP,,0.062,14.22,,0.084,14.88,,0.103,16.52,17.98,0.1375,0.1019,0.0238,41.56,10.47,4.628362942,42.35,10.65,3.976525822,0.003617,0.2625,,,,,,,No
71,YLPF19,YLP6,2,5/24/2024,4/23/2024,,0.048,12.64,Invert like,Yarra,LP,,0.064,13.83,,0.092,15.89,,0.114,16.36,18.22,0.1485,0.114,0.027,43.6,11.29,4.502887511,44.43,11.49,3.866840731,0.003634,0.2473,,,,,,,No
72,YLYF19,YLP6,2,5/24/2024,4/23/2024,,0.059,12.88,Algae like,Yarra,LP,,0.077,15.34,,0.1,15.73,,0.1,16.27,17.57,0.1328,0.1013,0.0246,40.7,10.6,4.477,41.48,10.78,3.847866419,0.003399,0.2279,,,,,,,No
73,YLPF20,YLP6,2,5/24/2024,4/23/2024,,0.044,11.91,Invert like,Yarra,LP,,0.067,14.45,,0.091,15.55,,0.108,16.05,17.84,0.1484,0.1128,0.0263,43.44,10.85,4.668298618,44.28,11.04,4.010869565,0.003286,0.2091,,,,,,,No
74,YHPF17,YHP5,1,5/24/2024,4/19/2024,,0.03,11.1,Invert like,Yarra,HP,,0.052,13.76,,0.098,16.21,,0.121,17.61,19.17,0.1586,0.1223,0.0282,44.85,11.2,4.669205357,45.71,11.4,4.009649123,0.003219,0.1959,,,,,,,No
75,YHPF18,YHP5,1,5/24/2024,4/19/2024,,0.038,11.65,Invert like,Yarra,HP,,0.064,14.33,,0.101,15.88,,0.121,16.82,18.33,0.159,0.1157,0.0279,45.02,11.11,4.724871287,45.88,11.31,4.056587091,0.003483,0.2314,,,,,,,No
76,YHYF18,YHP5,1,5/24/2024,4/19/2024,,0.026,10.68,Algae like,Yarra,HP,,0.058,13.92,,0.096,16.02,,0.122,16.91,18.07,0.1464,0.1108,0.0261,42.73,11.04,4.512969203,43.55,11.23,3.878005343,0.003234,0.181,,,,,,,No
77,YHPF19,YHP5,1,5/24/2024,4/19/2024,,0.04,12.12,Invert like,Yarra,HP,,0.061,14.52,,0.095,16.29,,0.135,18.21,19.16,0.1785,0.1381,0.0331,45.49,10.73,4.94327493,46.37,10.91,4.250229148,0.003376,0.2093,,,,,,,No
78,YHYF19,YHP5,1,5/24/2024,4/19/2024,,0.033,11.44,Algae like,Yarra,HP,,0.059,14.08,,0.094,16.44,,0.119,17.76,18.7,0.1446,0.1165,0.0273,44.11,10.95,4.697010046,44.96,11.14,4.035906643,0.003247,0.2055,,,,,,,No
79,YHPF20,YHP8,1,5/24/2024,4/19/2024,,0.035,11.69,Invert like,Yarra,HP,,0.066,14.49,,0.098,17,,0.124,18.01,19.39,0.1592,0.1248,0.307,46.45,11.05,4.901420814,47.34,11.24,4.211743772,0.003516,0.2162,,,,,,,No
80,YHYF20,YHP8,1,5/24/2024,4/19/2024,,0.048,13,Algae like,Yarra,HP,,0.066,15.03,,0.085,15.63,,0.112,16.82,18.28,0.1379,0.1048,0.0255,42.63,11.04,4.502407609,43.45,11.23,3.869100623,0.003533,0.2103,,,,,,,No
81,YHPF21,YHP8,1,5/24/2024,4/19/2024,,0.037,12.25,Invert like,Yarra,HP,,0.062,14.28,,0.103,16.34,,0.136,18.56,19.43,0.1649,0.1239,0.0316,45.87,10.82,4.943107209,46.75,11.01,4.246139873,0.003904,0.2456,,,,,,,No
82,YHYF21,YHP8,1,5/24/2024,4/19/2024,,0.028,11.16,Algae like,Yarra,HP,,NA,NA,,,,,,,,,,,,,,,,,,,,,,,,,Yes
83,YLYF20,YLP10,2,5/28/2024,5/3/2024,,0.025,10.8,Algae like,Yarra,LP,,0.037,11.62,,0.053,13.24,,0.081,15.1,16.32,0.1015,0.0861,0.0209,40.31,10.68,4.400885768,41.08,10.86,3.782688766,0.003939,0.2386,,,,,,,No
84,YLPF21,YLP10,2,5/28/2024,5/3/2024,,0.025,10.62,Invert like,Yarra,LP,,0.048,13.56,,0.07,14.17,,0.088,15.9,,,,,,,,,,,,,,,,,,,Yes
85,YLYF21,YLP10,2,5/28/2024,5/3/2024,,0.027,10.64,Algae like,Yarra,LP,,0.038,12.02,,0.056,13.7,,0.084,15.67,16.12,0.0999,0.0812,0.0191,41.22,10.65,4.512912676,42.02,10.84,3.876383764,0.003128,0.2148,,,,,,,No
86,YLPF22,YLP10,2,5/28/2024,5/3/2024,,0.023,10.73,Invert like,Yarra,LP,,0.032,12.13,,0.054,13.52,,0.08,15.29,16.85,0.1055,0.0885,0.0205,44.31,11.1,4.654545946,45.16,11.3,3.996460177,0.003235,0.1916,,,,,,,No
87,YLYF22,YLP3,3,5/28/2024,5/8/2024,,0.021,9.81,Algae like,Yarra,LP,,0.045,12.64,,0.063,13.88,,0.083,15.41,16.57,0.1098,0.868,0.0206,44.61,11.21,4.640076717,45.47,11.41,3.985100789,0.003431,0.1992,,,,,,,No
88,YLPF23,YLP3,3,5/28/2024,5/8/2024,,0.018,9.53,Invert like,Yarra,LP,,0.037,12.19,,0.064,13.93,,0.113,16.82,17.53,0.1397,0.1054,0.025,40.34,10.35,4.544583575,41.12,10.53,3.905033238,0.003248,0.2185,,,,,,,No
89,YLYF23,YLP3,3,5/28/2024,5/8/2024,,0.018,9.73,Algae like,Yarra,LP,,0.042,13.06,,0.065,15,,0.102,16.62,17.56,0.1255,0.0945,0.0228,44.78,10.78,4.84355102,45.64,10.97,4.160437557,0.003307,0.2113,,,,,,,No
90,YLPF24,YLP3,3,5/28/2024,5/8/2024,,0.02,10.07,Invert like,Yarra,LP,,0.045,12.78,,0.079,15.21,,0.108,16.82,17.94,0.1434,0.1068,0.0247,42.8,10.15,4.916729064,43.62,10.33,4.222652469,0.003335,0.1852,,,,,,,No
91,YLYF24,YLP4,3,5/28/2024,5/8/2024,,0.015,8.99,Algae like,Yarra,LP,,0.034,12,,0.058,13.41,,0.08,15.43,16.73,0.1134,0.0846,0.02,44.63,10.68,4.872526217,45.49,10.86,4.188766114,0.003391,0.2243,,,,,,,No
92,YLPF25,YLP3,3,5/28/2024,5/8/2024,,0.024,10.64,Invert like,Yarra,LP,,0.05,13.31,,0.082,15.12,,0.112,17.43,18,0.1445,0.1157,0.0276,39.95,10.61,4.390358153,40.72,10.79,3.77386469,0.003364,0.2081,,,,,,,No
93,YLYF25,YLP4,3,5/28/2024,5/8/2024,,0.015,8.9,Algae like,Yarra,LP,,0.039,11.97,,0.074,14.49,,0.097,16.32,18.78,0.158,0.1198,0.0283,43.55,11.35,4.473947137,44.39,11.54,3.846620451,0.003442,0.2136,,,,,,,No
94,YLYF26,YLP4,3,5/28/2024,5/8/2024,,0.014,8.84,Algae like,Yarra,LP,,0.036,11.94,,NA,NA,,,,,,,,,,,,,,,,,,,,,,Yes
95,YHPF22,YHP1,3,5/28/2024,5/2/2024,,0.074,15.73,Invert like,Yarra,HP,,0.093,16.53,,0.116,17.04,,0.136,18.37,18.59,0.1461,0.1166,0.0291,44.36,10.71,4.829482726,45.21,10.9,4.147706422,0.003122,0.1846,,,,,,,No
96,YHYF22,YHP6,2,5/28/2024,4/23/2024,,0.035,11.62,Algae like,Yarra,HP,,0.068,14.79,,0.083,15,,0.103,16.31,18.09,0.1496,0.1105,0.0263,46.01,11.01,4.872630336,46.89,11.2,4.186607143,0.003199,0.1988,,,,,,,No
97,YHPF23,YHP6,2,5/28/2024,4/23/2024,,0.043,12.67,Invert like,Yarra,HP,,0.073,15.14,,0.097,15.83,,0.131,18.32,19.08,0.1558,0.118,0.029,45.91,11,4.86646,46.79,11.19,4.181411975,0.003138,0.1845,,,,,,,No
98,YHYF23,YHP4,2,5/28/2024,4/29/2024,,0.027,10.7,Algae like,Yarra,HP,,0.045,13.31,,0.068,14.54,,0.097,16.57,17.94,0.1344,0.1056,0.0244,44.5,11.62,4.465318417,45.35,11.82,3.836717428,0.003124,0.2119,,,,,,,No
99,YHPF24,YHP4,2,5/28/2024,4/29/2024,,0.028,10.84,Invert like,Yarra,HP,,0.05,13.58,,0.08,14.8,,0.107,16.66,17.73,0.1428,0.1099,0.0259,43.66,10.82,4.704950092,44.5,11.01,4.0417802,0.003771,0.2326,,,,,,,No
100,YHYF24,YHP4,2,5/28/2024,4/29/2024,,0.02,10.14,Algae like,Yarra,HP,,0.039,12.99,,0.061,14.11,,0.095,16.1,17.68,0.1202,0.0979,0.0234,39.14,10.46,4.363024857,39.89,10.64,3.74906015,0.003206,0.1903,,,,,,,No
101,YHPF25,YHP4,2,5/28/2024,4/29/2024,,0.026,10.91,Invert like,Yarra,HP,,0.046,13.25,,0.075,15.25,,0.098,16.78,17.61,0.1238,0.093,0.0211,40.65,11.08,4.277788809,41.43,11.27,3.676131322,0.003076,0.2088,,,,,,,No
102,YHYF25,YHP4,2,5/28/2024,4/29/2024,,0.033,11.5,Algae like,Yarra,HP,,0.052,13.62,,0.076,15.3,,0.115,17.45,17.83,0.1261,0.1018,0.0262,46.47,11.05,4.903531222,47.36,11.24,4.213523132,0.003781,0.2117,,,,,,,No